<?xml version="1.0" encoding="utf-8"?>
<!-- Generator: Adobe Illustrator 15.0.0, SVG Export Plug-In . SVG Version: 6.00 Build 0)  -->
<!DOCTYPE svg PUBLIC "-//W3C//DTD SVG 1.1//EN" "http://www.w3.org/Graphics/SVG/1.1/DTD/svg11.dtd">
<svg version="1.1" id="圖層_1" focusable="false" xmlns="http://www.w3.org/2000/svg" xmlns:xlink="http://www.w3.org/1999/xlink"
	 x="0px" y="0px" width="375px" height="367px" viewBox="0 150 375 367" enable-background="new 0 150 375 367"
	 xml:space="preserve">
<path fill="#1977F3" d="M369.141,333.5c0-100.342-81.299-181.641-181.641-181.641S5.859,233.158,5.859,333.5
	c0,90.659,66.423,165.806,153.259,179.443V386.008h-46.143V333.5h46.143v-40.02c0-45.52,27.1-70.664,68.606-70.664
	c19.878,0,40.664,3.545,40.664,3.545v44.678h-22.91c-22.559,0-29.598,14.004-29.598,28.367V333.5h50.377l-8.057,52.508h-42.32
	v126.936C302.717,499.306,369.141,424.159,369.141,333.5z"/>
</svg>
