<?xml version="1.0" encoding="utf-8"?>
<!-- Generator: Adobe Illustrator 24.0.0, SVG Export Plug-In . SVG Version: 6.00 Build 0)  -->
<svg version="1.1" id="圖層_11" xmlns="http://www.w3.org/2000/svg" xmlns:xlink="http://www.w3.org/1999/xlink" x="0px" y="0px"
	 viewBox="0 0 192 192" style="enable-background:new 0 0 192 192;" xml:space="preserve">
<style type="text/css">
	.st0{fill:#296BFF;}
</style>
<title>icon_link</title>
<path class="st0" d="M109.2,82.8c11.1,11.1,11.1,29.1,0.1,40.2l-0.1,0.1l-12.6,12.6c-11.1,11.1-29.2,11.1-40.3,0s-11.1-29.2,0-40.3
	l7-7c1.2-1.2,3.1-1.2,4.2,0c0.5,0.5,0.8,1.2,0.9,2c0.1,3.4,0.7,6.7,1.8,9.9c0.4,1.1,0.1,2.3-0.7,3.1l-2.5,2.5
	c-5.3,5.2-5.4,13.8-0.1,19.1c5.2,5.3,13.8,5.4,19.1,0.1l12.6-12.6c5.3-5.3,5.3-13.8,0-19.1c0,0,0,0,0,0c-0.6-0.6-1.2-1.1-1.9-1.6
	c-0.8-0.5-1.3-1.4-1.3-2.4c-0.1-2.1,0.7-4.1,2.2-5.6l3.9-4c1-1,2.7-1.2,3.9-0.3C106.8,80.4,108.1,81.5,109.2,82.8L109.2,82.8z
	 M135.7,56.3c-11.1-11.1-29.2-11.1-40.3,0L82.8,68.9L82.7,69c-11.1,11.1-11,29.1,0.1,40.2c1.2,1.2,2.5,2.3,3.8,3.2
	c1.2,0.8,2.8,0.7,3.9-0.3l4-4c1.5-1.5,2.3-3.5,2.2-5.6c0-0.9-0.5-1.8-1.3-2.4c-0.7-0.5-1.3-1-1.9-1.6c-5.3-5.3-5.3-13.8,0-19.1
	c0,0,0,0,0,0L106,66.9c5.3-5.2,13.9-5.2,19.1,0.1c5.2,5.3,5.2,13.9-0.1,19.1l0,0l-2.5,2.5c-0.8,0.8-1.1,2-0.7,3.1
	c1.1,3.2,1.7,6.5,1.8,9.9c0.1,1.7,1.5,2.9,3.1,2.9c0.8,0,1.5-0.3,2-0.9l7-7c11.1-11.1,11.1-29.2,0-40.3L135.7,56.3z"/>
</svg>
