<?xml version="1.0" encoding="utf-8"?>
<!-- Generator: Adobe Illustrator 15.0.0, SVG Export Plug-In . SVG Version: 6.00 Build 0)  -->
<!DOCTYPE svg PUBLIC "-//W3C//DTD SVG 1.1//EN" "http://www.w3.org/Graphics/SVG/1.1/DTD/svg11.dtd">
<svg version="1.1" id="圖層_1" focusable="false" xmlns="http://www.w3.org/2000/svg" xmlns:xlink="http://www.w3.org/1999/xlink"
	 x="0px" y="0px" width="375px" height="376px" viewBox="0 145 375 376" enable-background="new 0 145 375 376"
	 xml:space="preserve">
<path fill="#1ED154" d="M227.762,290.141v59.515c0,1.507-1.172,2.679-2.678,2.679h-9.543c-0.92,0-1.758-0.502-2.176-1.088
	l-27.288-36.831v35.323c0,1.508-1.172,2.68-2.679,2.68h-9.542c-1.507,0-2.679-1.172-2.679-2.68v-59.514
	c0-1.507,1.172-2.679,2.679-2.679h9.459c0.837,0,1.758,0.418,2.176,1.172l27.288,36.83v-35.323c0-1.507,1.172-2.679,2.678-2.679H225
	C226.507,287.462,227.762,288.718,227.762,290.141L227.762,290.141z M159.124,287.462h-9.542c-1.507,0-2.679,1.172-2.679,2.679
	v59.515c0,1.507,1.172,2.679,2.679,2.679h9.542c1.506,0,2.678-1.172,2.678-2.679v-59.515
	C161.802,288.718,160.63,287.462,159.124,287.462L159.124,287.462z M136.105,337.351h-26.032v-47.21
	c0-1.507-1.172-2.679-2.679-2.679h-9.542c-1.507,0-2.679,1.172-2.679,2.679v59.515c0,0.753,0.251,1.339,0.753,1.841
	c0.502,0.419,1.088,0.754,1.842,0.754h38.253c1.507,0,2.679-1.172,2.679-2.679v-9.542
	C138.7,338.605,137.528,337.351,136.105,337.351L136.105,337.351z M277.985,287.462h-38.253c-1.424,0-2.679,1.172-2.679,2.679
	v59.515c0,1.423,1.172,2.679,2.679,2.679h38.253c1.507,0,2.679-1.172,2.679-2.679v-9.542c0-1.508-1.172-2.68-2.679-2.68h-26.032
	V327.39h26.032c1.507,0,2.679-1.172,2.679-2.679v-9.626c0-1.507-1.172-2.679-2.679-2.679h-26.032v-10.044h26.032
	c1.507,0,2.679-1.172,2.679-2.679v-9.542C280.58,288.718,279.408,287.462,277.985,287.462L277.985,287.462z M375,214.387v238.811
	c-0.084,37.5-30.804,67.886-68.388,67.802H67.801C30.301,520.916-0.083,490.112,0,452.612V213.801
	c0.083-37.5,30.887-67.885,68.387-67.801h238.811C344.698,146.084,375.084,176.804,375,214.387z M323.438,317.01
	c0-61.105-61.272-110.826-136.523-110.826S50.391,255.905,50.391,317.01c0,54.744,48.549,100.614,114.174,109.319
	c15.987,3.432,14.146,9.291,10.547,30.804c-0.586,3.432-2.763,13.477,11.802,7.366c14.564-6.11,78.6-46.289,107.311-79.269
	C313.979,363.467,323.438,341.452,323.438,317.01z"/>
</svg>
